Road accidents data — road_accidents • rWSBIM1207
…
These are publicly available data downloaded on 16 June 2023 from the
  Belgian gouvernment open data page. For more details on these data,
  see
  https://statbel.fgov.be/fr/themes/mobilite/circulation/accidents-de-la-circulation

    Usage

road_accidents_be_2022.rds()
road_accidents_be_meta.csv()

    Examples

readRDS(road_accidents_be_2022.rds())
#> # A tibble: 82,876 × 43
#>    DT_DAY     DT_HOUR CD_DAY_OF_WEEK TX_DAY_OF_WEEK_DESCR_FR
#>    <date>       <dbl>          <dbl> <chr>                  
#>  1 2022-12-13       7              2 Mardi                  
#>  2 2022-11-13       9              7 Dimanche               
#>  3 2022-11-21      17              1 Lundi                  
#>  4 2022-10-16      14              7 Dimanche               
#>  5 2022-12-30      16              5 Vendredi               
#>  6 2022-11-29      13              2 Mardi                  
#>  7 2022-11-02      17              3 Mercredi               
#>  8 2022-10-16      14              7 Dimanche               
#>  9 2022-10-21      19              5 Vendredi               
#> 10 2022-12-17      15              6 Samedi                 
#> # ℹ 82,866 more rows
#> # ℹ 39 more variables: TX_DAY_OF_WEEK_DESCR_NL <chr>, MS_VICT <dbl>,
#> #   MS_VIC_OK <dbl>, MS_SLY_INJ <dbl>, MS_SERLY_INJ <dbl>,
#> #   MS_DEAD_30_DAYS <dbl>, CD_BUILD_UP_AREA <dbl>,
#> #   TX_BUILD_UP_AREA_DESCR_NL <chr>, TX_BUILD_UP_AREA_DESCR_FR <chr>,
#> #   CD_VICT_TYPE <dbl>, TX_VICT_TYPE_DESCR_FR <chr>,
#> #   TX_VICT_TYPE_DESCR_NL <chr>, CD_ROAD_USER_TYPE <chr>, …
…
